-- Merging decision tree log ---
manifest
ADDED from D:\bitbucket\android_deneme\NewThread\app\src\main\AndroidManifest.xml:2:1-24:12
	package
		ADDED from D:\bitbucket\android_deneme\NewThread\app\src\main\AndroidManifest.xml:3:5-41
		INJECTED from D:\bitbucket\android_deneme\NewThread\app\src\main\AndroidManifest.xml
		INJECTED from D:\bitbucket\android_deneme\NewThread\app\src\main\AndroidManifest.xml
	android:versionName
		INJECTED from D:\bitbucket\android_deneme\NewThread\app\src\main\AndroidManifest.xml
		INJECTED from D:\bitbucket\android_deneme\NewThread\app\src\main\AndroidManifest.xml
	xmlns:android
		ADDED from D:\bitbucket\android_deneme\NewThread\app\src\main\AndroidManifest.xml:2:11-69
	android:versionCode
		INJECTED from D:\bitbucket\android_deneme\NewThread\app\src\main\AndroidManifest.xml
		INJECTED from D:\bitbucket\android_deneme\NewThread\app\src\main\AndroidManifest.xml
application
ADDED from D:\bitbucket\android_deneme\NewThread\app\src\main\AndroidManifest.xml:5:5-22:19
MERGED from [com.android.support:appcompat-v7:25.3.1] C:\Users\omer\.android\build-cache\74b945366333671269d6f1a5622b0e5bc80af76d\output\AndroidManifest.xml:29:5-20
MERGED from [com.android.support:support-v4:25.3.1] C:\Users\omer\.android\build-cache\4ac706777293d9683f1ae0a08868b31fa69374f3\output\AndroidManifest.xml:29:5-20
MERGED from [com.android.support:support-fragment:25.3.1] C:\Users\omer\.android\build-cache\5984ff5a9a2ee3cd05a25670c234f98c6ebe51f2\output\AndroidManifest.xml:29:5-20
MERGED from [com.android.support:support-media-compat:25.3.1] C:\Users\omer\.android\build-cache\5bf5f034669804bc6147cfa2ff3ee488b4b56cf7\output\AndroidManifest.xml:29:5-20
MERGED from [com.android.support:support-core-ui:25.3.1] C:\Users\omer\.android\build-cache\f190213f5fca1f49e62468847420dc6c77669742\output\AndroidManifest.xml:29:5-20
MERGED from [com.android.support:support-core-utils:25.3.1] C:\Users\omer\.android\build-cache\5317775a85c493d8c5df7097038d1f93ed268711\output\AndroidManifest.xml:29:5-20
MERGED from [com.android.support:animated-vector-drawable:25.3.1] C:\Users\omer\.android\build-cache\d5632f96fce117947b24e16838de99b32851ee77\output\AndroidManifest.xml:26:5-20
MERGED from [com.android.support:support-vector-drawable:25.3.1] C:\Users\omer\.android\build-cache\f9bfa97d3027491a142f8067324cdd86e432833c\output\AndroidManifest.xml:26:5-20
MERGED from [com.android.support:support-compat:25.3.1] C:\Users\omer\.android\build-cache\cc3795bcc9f72121fa8aa547de846f0000500d28\output\AndroidManifest.xml:29:5-20
MERGED from [com.android.support.constraint:constraint-layout:1.0.2] C:\Users\omer\.android\build-cache\2760ad33d69a0d0b482566346286dd7169f651c8\output\AndroidManifest.xml:9:5-20
	android:label
		ADDED from D:\bitbucket\android_deneme\NewThread\app\src\main\AndroidManifest.xml:8:9-41
	android:supportsRtl
		ADDED from D:\bitbucket\android_deneme\NewThread\app\src\main\AndroidManifest.xml:10:9-35
	android:roundIcon
		ADDED from D:\bitbucket\android_deneme\NewThread\app\src\main\AndroidManifest.xml:9:9-54
	android:allowBackup
		ADDED from D:\bitbucket\android_deneme\NewThread\app\src\main\AndroidManifest.xml:6:9-35
	android:icon
		ADDED from D:\bitbucket\android_deneme\NewThread\app\src\main\AndroidManifest.xml:7:9-43
	android:theme
		ADDED from D:\bitbucket\android_deneme\NewThread\app\src\main\AndroidManifest.xml:11:9-40
activity#com.example.omer.newthread.MainActivity
ADDED from D:\bitbucket\android_deneme\NewThread\app\src\main\AndroidManifest.xml:12:9-18:20
	android:name
		ADDED from D:\bitbucket\android_deneme\NewThread\app\src\main\AndroidManifest.xml:12:19-47
intent-filter#android.intent.action.MAIN+android.intent.category.LAUNCHER
ADDED from D:\bitbucket\android_deneme\NewThread\app\src\main\AndroidManifest.xml:13:13-17:29
action#android.intent.action.MAIN
ADDED from D:\bitbucket\android_deneme\NewThread\app\src\main\AndroidManifest.xml:14:17-69
	android:name
		ADDED from D:\bitbucket\android_deneme\NewThread\app\src\main\AndroidManifest.xml:14:25-66
category#android.intent.category.LAUNCHER
ADDED from D:\bitbucket\android_deneme\NewThread\app\src\main\AndroidManifest.xml:16:17-77
	android:name
		ADDED from D:\bitbucket\android_deneme\NewThread\app\src\main\AndroidManifest.xml:16:27-74
activity#com.example.omer.newthread.SayfaGecis
ADDED from D:\bitbucket\android_deneme\NewThread\app\src\main\AndroidManifest.xml:19:9-80
	android:label
		ADDED from D:\bitbucket\android_deneme\NewThread\app\src\main\AndroidManifest.xml:19:46-78
	android:name
		ADDED from D:\bitbucket\android_deneme\NewThread\app\src\main\AndroidManifest.xml:19:19-45
activity#com.example.omer.newthread.Sayfa_Uc
ADDED from D:\bitbucket\android_deneme\NewThread\app\src\main\AndroidManifest.xml:20:9-78
	android:label
		ADDED from D:\bitbucket\android_deneme\NewThread\app\src\main\AndroidManifest.xml:20:44-76
	android:name
		ADDED from D:\bitbucket\android_deneme\NewThread\app\src\main\AndroidManifest.xml:20:19-43
activity#com.example.omer.newthread.SayfaDort
ADDED from D:\bitbucket\android_deneme\NewThread\app\src\main\AndroidManifest.xml:21:9-79
	android:label
		ADDED from D:\bitbucket\android_deneme\NewThread\app\src\main\AndroidManifest.xml:21:45-77
	android:name
		ADDED from D:\bitbucket\android_deneme\NewThread\app\src\main\AndroidManifest.xml:21:19-44
uses-sdk
INJECTED from D:\bitbucket\android_deneme\NewThread\app\src\main\AndroidManifest.xml reason: use-sdk injection requested
MERGED from [com.android.support:appcompat-v7:25.3.1] C:\Users\omer\.android\build-cache\74b945366333671269d6f1a5622b0e5bc80af76d\output\AndroidManifest.xml:21:5-23:78
MERGED from [com.android.support:support-v4:25.3.1] C:\Users\omer\.android\build-cache\4ac706777293d9683f1ae0a08868b31fa69374f3\output\AndroidManifest.xml:21:5-23:54
MERGED from [com.android.support:support-fragment:25.3.1] C:\Users\omer\.android\build-cache\5984ff5a9a2ee3cd05a25670c234f98c6ebe51f2\output\AndroidManifest.xml:21:5-23:60
MERGED from [com.android.support:support-media-compat:25.3.1] C:\Users\omer\.android\build-cache\5bf5f034669804bc6147cfa2ff3ee488b4b56cf7\output\AndroidManifest.xml:21:5-23:63
MERGED from [com.android.support:support-core-ui:25.3.1] C:\Users\omer\.android\build-cache\f190213f5fca1f49e62468847420dc6c77669742\output\AndroidManifest.xml:21:5-23:58
MERGED from [com.android.support:support-core-utils:25.3.1] C:\Users\omer\.android\build-cache\5317775a85c493d8c5df7097038d1f93ed268711\output\AndroidManifest.xml:21:5-23:61
MERGED from [com.android.support:animated-vector-drawable:25.3.1] C:\Users\omer\.android\build-cache\d5632f96fce117947b24e16838de99b32851ee77\output\AndroidManifest.xml:20:5-44
MERGED from [com.android.support:support-vector-drawable:25.3.1] C:\Users\omer\.android\build-cache\f9bfa97d3027491a142f8067324cdd86e432833c\output\AndroidManifest.xml:20:5-43
MERGED from [com.android.support:support-compat:25.3.1] C:\Users\omer\.android\build-cache\cc3795bcc9f72121fa8aa547de846f0000500d28\output\AndroidManifest.xml:21:5-23:58
MERGED from [com.android.support.constraint:constraint-layout:1.0.2] C:\Users\omer\.android\build-cache\2760ad33d69a0d0b482566346286dd7169f651c8\output\AndroidManifest.xml:5:5-7:41
	tools:overrideLibrary
		ADDED from [com.android.support:appcompat-v7:25.3.1] C:\Users\omer\.android\build-cache\74b945366333671269d6f1a5622b0e5bc80af76d\output\AndroidManifest.xml:23:9-75
	android:targetSdkVersion
		INJECTED from D:\bitbucket\android_deneme\NewThread\app\src\main\AndroidManifest.xml
		INJECTED from D:\bitbucket\android_deneme\NewThread\app\src\main\AndroidManifest.xml
	android:minSdkVersion
		INJECTED from D:\bitbucket\android_deneme\NewThread\app\src\main\AndroidManifest.xml
		INJECTED from D:\bitbucket\android_deneme\NewThread\app\src\main\AndroidManifest.xml
meta-data#android.support.VERSION
ADDED from [com.android.support:appcompat-v7:25.3.1] C:\Users\omer\.android\build-cache\74b945366333671269d6f1a5622b0e5bc80af76d\output\AndroidManifest.xml:25:5-27:34
MERGED from [com.android.support:support-v4:25.3.1] C:\Users\omer\.android\build-cache\4ac706777293d9683f1ae0a08868b31fa69374f3\output\AndroidManifest.xml:25:5-27:34
MERGED from [com.android.support:support-fragment:25.3.1] C:\Users\omer\.android\build-cache\5984ff5a9a2ee3cd05a25670c234f98c6ebe51f2\output\AndroidManifest.xml:25:5-27:34
MERGED from [com.android.support:support-media-compat:25.3.1] C:\Users\omer\.android\build-cache\5bf5f034669804bc6147cfa2ff3ee488b4b56cf7\output\AndroidManifest.xml:25:5-27:34
MERGED from [com.android.support:support-core-ui:25.3.1] C:\Users\omer\.android\build-cache\f190213f5fca1f49e62468847420dc6c77669742\output\AndroidManifest.xml:25:5-27:34
MERGED from [com.android.support:support-core-utils:25.3.1] C:\Users\omer\.android\build-cache\5317775a85c493d8c5df7097038d1f93ed268711\output\AndroidManifest.xml:25:5-27:34
MERGED from [com.android.support:animated-vector-drawable:25.3.1] C:\Users\omer\.android\build-cache\d5632f96fce117947b24e16838de99b32851ee77\output\AndroidManifest.xml:22:5-24:34
MERGED from [com.android.support:support-vector-drawable:25.3.1] C:\Users\omer\.android\build-cache\f9bfa97d3027491a142f8067324cdd86e432833c\output\AndroidManifest.xml:22:5-24:34
MERGED from [com.android.support:support-compat:25.3.1] C:\Users\omer\.android\build-cache\cc3795bcc9f72121fa8aa547de846f0000500d28\output\AndroidManifest.xml:25:5-27:34
	android:value
		ADDED from [com.android.support:appcompat-v7:25.3.1] C:\Users\omer\.android\build-cache\74b945366333671269d6f1a5622b0e5bc80af76d\output\AndroidManifest.xml:27:9-31
	android:name
		ADDED from [com.android.support:appcompat-v7:25.3.1] C:\Users\omer\.android\build-cache\74b945366333671269d6f1a5622b0e5bc80af76d\output\AndroidManifest.xml:26:9-47
